Aula7/MemoryBlocks/simulation/qsim/MemoryBlocks.msim.vcd
$comment
	File created using the following command:
		vcd file MemoryBlocks.msim.vcd -direction
$end
$date
	Tue Oct 08 14:14:58 2024
$end
$version
	ModelSim Version 10.5b
$end
$timescale
	1ps
$end

$scope module memoryblocks_vhd_vec_tst $end
$var wire 1 ! address [4] $end
$var wire 1 " address [3] $end
$var wire 1 # address [2] $end
$var wire 1 $ address [1] $end
$var wire 1 % address [0] $end
$var wire 1 & clock $end
$var wire 1 ' dataIn [3] $end
$var wire 1 ( dataIn [2] $end
$var wire 1 ) dataIn [1] $end
$var wire 1 * dataIn [0] $end
$var wire 1 + dataOut [3] $end
$var wire 1 , dataOut [2] $end
$var wire 1 - dataOut [1] $end
$var wire 1 . dataOut [0] $end
$var wire 1 / wren $end

$scope module i1 $end
$var wire 1 0 gnd $end
$var wire 1 1 vcc $end
$var wire 1 2 unknown $end
$var wire 1 3 devoe $end
$var wire 1 4 devclrn $end
$var wire 1 5 devpor $end
$var wire 1 6 ww_devoe $end
$var wire 1 7 ww_devclrn $end
$var wire 1 8 ww_devpor $end
$var wire 1 9 ww_address [4] $end
$var wire 1 : ww_address [3] $end
$var wire 1 ; ww_address [2] $end
$var wire 1 < ww_address [1] $end
$var wire 1 = ww_address [0] $end
$var wire 1 > ww_clock $end
$var wire 1 ? ww_dataIn [3] $end
$var wire 1 @ ww_dataIn [2] $end
$var wire 1 A ww_dataIn [1] $end
$var wire 1 B ww_dataIn [0] $end
$var wire 1 C ww_wren $end
$var wire 1 D ww_dataOut [3] $end
$var wire 1 E ww_dataOut [2] $end
$var wire 1 F ww_dataOut [1] $end
$var wire 1 G ww_dataOut [0] $end
$var wire 1 H \ram_instance|altsyncram_component|auto_generated|ram_block1a0_PORTADATAIN_bus\ [19] $end
$var wire 1 I \ram_instance|altsyncram_component|auto_generated|ram_block1a0_PORTADATAIN_bus\ [18] $end
$var wire 1 J \ram_instance|altsyncram_component|auto_generated|ram_block1a0_PORTADATAIN_bus\ [17] $end
$var wire 1 K \ram_instance|altsyncram_component|auto_generated|ram_block1a0_PORTADATAIN_bus\ [16] $end
$var wire 1 L \ram_instance|altsyncram_component|auto_generated|ram_block1a0_PORTADATAIN_bus\ [15] $end
$var wire 1 M \ram_instance|altsyncram_component|auto_generated|ram_block1a0_PORTADATAIN_bus\ [14] $end
$var wire 1 N \ram_instance|altsyncram_component|auto_generated|ram_block1a0_PORTADATAIN_bus\ [13] $end
$var wire 1 O \ram_instance|altsyncram_component|auto_generated|ram_block1a0_PORTADATAIN_bus\ [12] $end
$var wire 1 P \ram_instance|altsyncram_component|auto_generated|ram_block1a0_PORTADATAIN_bus\ [11] $end
$var wire 1 Q \ram_instance|altsyncram_component|auto_generated|ram_block1a0_PORTADATAIN_bus\ [10] $end
$var wire 1 R \ram_instance|altsyncram_component|auto_generated|ram_block1a0_PORTADATAIN_bus\ [9] $end
$var wire 1 S \ram_instance|altsyncram_component|auto_generated|ram_block1a0_PORTADATAIN_bus\ [8] $end
$var wire 1 T \ram_instance|altsyncram_component|auto_generated|ram_block1a0_PORTADATAIN_bus\ [7] $end
$var wire 1 U \ram_instance|altsyncram_component|auto_generated|ram_block1a0_PORTADATAIN_bus\ [6] $end
$var wire 1 V \ram_instance|altsyncram_component|auto_generated|ram_block1a0_PORTADATAIN_bus\ [5] $end
$var wire 1 W \ram_instance|altsyncram_component|auto_generated|ram_block1a0_PORTADATAIN_bus\ [4] $end
$var wire 1 X \ram_instance|altsyncram_component|auto_generated|ram_block1a0_PORTADATAIN_bus\ [3] $end
$var wire 1 Y \ram_instance|altsyncram_component|auto_generated|ram_block1a0_PORTADATAIN_bus\ [2] $end
$var wire 1 Z \ram_instance|altsyncram_component|auto_generated|ram_block1a0_PORTADATAIN_bus\ [1] $end
$var wire 1 [ \ram_instance|altsyncram_component|auto_generated|ram_block1a0_PORTADATAIN_bus\ [0] $end
$var wire 1 \ \ram_instance|altsyncram_component|auto_generated|ram_block1a0_PORTAADDR_bus\ [4] $end
$var wire 1 ] \ram_instance|altsyncram_component|auto_generated|ram_block1a0_PORTAADDR_bus\ [3] $end
$var wire 1 ^ \ram_instance|altsyncram_component|auto_generated|ram_block1a0_PORTAADDR_bus\ [2] $end
$var wire 1 _ \ram_instance|altsyncram_component|auto_generated|ram_block1a0_PORTAADDR_bus\ [1] $end
$var wire 1 ` \ram_instance|altsyncram_component|auto_generated|ram_block1a0_PORTAADDR_bus\ [0] $end
$var wire 1 a \ram_instance|altsyncram_component|auto_generated|ram_block1a0_PORTADATAOUT_bus\ [19] $end
$var wire 1 b \ram_instance|altsyncram_component|auto_generated|ram_block1a0_PORTADATAOUT_bus\ [18] $end
$var wire 1 c \ram_instance|altsyncram_component|auto_generated|ram_block1a0_PORTADATAOUT_bus\ [17] $end
$var wire 1 d \ram_instance|altsyncram_component|auto_generated|ram_block1a0_PORTADATAOUT_bus\ [16] $end
$var wire 1 e \ram_instance|altsyncram_component|auto_generated|ram_block1a0_PORTADATAOUT_bus\ [15] $end
$var wire 1 f \ram_instance|altsyncram_component|auto_generated|ram_block1a0_PORTADATAOUT_bus\ [14] $end
$var wire 1 g \ram_instance|altsyncram_component|auto_generated|ram_block1a0_PORTADATAOUT_bus\ [13] $end
$var wire 1 h \ram_instance|altsyncram_component|auto_generated|ram_block1a0_PORTADATAOUT_bus\ [12] $end
$var wire 1 i \ram_instance|altsyncram_component|auto_generated|ram_block1a0_PORTADATAOUT_bus\ [11] $end
$var wire 1 j \ram_instance|altsyncram_component|auto_generated|ram_block1a0_PORTADATAOUT_bus\ [10] $end
$var wire 1 k \ram_instance|altsyncram_component|auto_generated|ram_block1a0_PORTADATAOUT_bus\ [9] $end
$var wire 1 l \ram_instance|altsyncram_component|auto_generated|ram_block1a0_PORTADATAOUT_bus\ [8] $end
$var wire 1 m \ram_instance|altsyncram_component|auto_generated|ram_block1a0_PORTADATAOUT_bus\ [7] $end
$var wire 1 n \ram_instance|altsyncram_component|auto_generated|ram_block1a0_PORTADATAOUT_bus\ [6] $end
$var wire 1 o \ram_instance|altsyncram_component|auto_generated|ram_block1a0_PORTADATAOUT_bus\ [5] $end
$var wire 1 p \ram_instance|altsyncram_component|auto_generated|ram_block1a0_PORTADATAOUT_bus\ [4] $end
$var wire 1 q \ram_instance|altsyncram_component|auto_generated|ram_block1a0_PORTADATAOUT_bus\ [3] $end
$var wire 1 r \ram_instance|altsyncram_component|auto_generated|ram_block1a0_PORTADATAOUT_bus\ [2] $end
$var wire 1 s \ram_instance|altsyncram_component|auto_generated|ram_block1a0_PORTADATAOUT_bus\ [1] $end
$var wire 1 t \ram_instance|altsyncram_component|auto_generated|ram_block1a0_PORTADATAOUT_bus\ [0] $end
$var wire 1 u \~QUARTUS_CREATED_GND~I_combout\ $end
$var wire 1 v \wren~input_o\ $end
$var wire 1 w \clock~input_o\ $end
$var wire 1 x \clock~inputCLKENA0_outclk\ $end
$var wire 1 y \dataIn[0]~input_o\ $end
$var wire 1 z \address[0]~input_o\ $end
$var wire 1 { \address[1]~input_o\ $end
$var wire 1 | \address[2]~input_o\ $end
$var wire 1 } \address[3]~input_o\ $end
$var wire 1 ~ \address[4]~input_o\ $end
$var wire 1 !! \dataIn[1]~input_o\ $end
$var wire 1 "! \dataIn[2]~input_o\ $end
$var wire 1 #! \dataIn[3]~input_o\ $end
$var wire 1 $! \ram_instance|altsyncram_component|auto_generated|q_a\ [3] $end
$var wire 1 %! \ram_instance|altsyncram_component|auto_generated|q_a\ [2] $end
$var wire 1 &! \ram_instance|altsyncram_component|auto_generated|q_a\ [1] $end
$var wire 1 '! \ram_instance|altsyncram_component|auto_generated|q_a\ [0] $end
$upscope $end
$upscope $end
$enddefinitions $end
#0
$dumpvars
0&
0/
00
11
x2
13
14
15
16
17
18
0>
0C
xu
0v
0w
0x
0y
0z
0{
0|
0}
0~
0!!
0"!
0#!
0!
0"
0#
0$
0%
0'
0(
0)
0*
09
0:
0;
0<
0=
0?
0@
0A
0B
0D
0E
0F
0G
0a
0b
0c
0d
0e
0f
0g
0h
0i
0j
0k
0l
0m
0n
0o
0p
0q
0r
0s
0t
0$!
0%!
0&!
0'!
0H
0I
0J
0K
0L
0M
0N
0O
0P
0Q
0R
0S
0T
0U
0V
0W
0X
0Y
0Z
0[
0\
0]
0^
0_
0`
0+
0,
0-
0.
$end
#50000
1&
1>
1w
1x
#80000
1(
1@
1"!
1Y
#100000
0&
1/
0>
1C
1v
0w
0x
#150000
1&
1>
1w
1x
#150001
1r
1%!
1E
1,
#200000
0&
0/
0>
0C
0v
0w
0x
#220000
0(
0@
0"!
0Y
#250000
1&
1>
1w
1x
#280000
1)
1*
1B
1A
1!!
1y
1[
1Z
#300000
0&
1/
0>
1C
1v
0w
0x
#350000
1&
1>
1w
1x
#350001
0r
1s
1t
0%!
1&!
1'!
1G
1F
0E
1.
1-
0,
#400000
0&
0/
0>
0C
0v
0w
0x
#450000
1&
1>
1w
1x
#460000
0)
0*
0B
0A
0!!
0y
0[
0Z
#500000
0&
1/
0>
1C
1v
0w
0x
#550000
1&
1>
1w
1x
#550001
0s
0t
0&!
0'!
0G
0F
0.
0-
#600000
0&
0/
0>
0C
0v
0w
0x
#650000
1&
1>
1w
1x
#680000
1)
1(
1A
1@
1"!
1!!
1Z
1Y
#700000
0&
1/
0>
1C
1v
0w
0x
#750000
1&
1>
1w
1x
#750001
1r
1s
1%!
1&!
1F
1E
1-
1,
#800000
0&
0/
0>
0C
0v
0w
0x
#850000
1&
1>
1w
1x
#860000
0)
0(
0A
0@
0"!
0!!
0Z
0Y
#900000
0&
1/
0>
1C
1v
0w
0x
#950000
1&
1>
1w
1x
#950001
0r
0s
0%!
0&!
0F
0E
0-
0,
