Aula8/simulation/qsim/Part1.msim.vcd
$comment
	File created using the following command:
		vcd file Part1.msim.vcd -direction
$end
$date
	Tue Oct 08 17:30:28 2024
$end
$version
	ModelSim Version 10.5b
$end
$timescale
	1ps
$end

$scope module fsm_vhd_vec_tst $end
$var wire 1 ! clk $end
$var wire 1 " reset $end
$var wire 1 # w $end
$var wire 1 $ z $end

$scope module i1 $end
$var wire 1 % gnd $end
$var wire 1 & vcc $end
$var wire 1 ' unknown $end
$var wire 1 ( devoe $end
$var wire 1 ) devclrn $end
$var wire 1 * devpor $end
$var wire 1 + ww_devoe $end
$var wire 1 , ww_devclrn $end
$var wire 1 - ww_devpor $end
$var wire 1 . ww_clk $end
$var wire 1 / ww_reset $end
$var wire 1 0 ww_w $end
$var wire 1 1 ww_z $end
$var wire 1 2 \~QUARTUS_CREATED_GND~I_combout\ $end
$var wire 1 3 \clk~input_o\ $end
$var wire 1 4 \clk~inputCLKENA0_outclk\ $end
$var wire 1 5 \w~input_o\ $end
$var wire 1 6 \state.A_0~feeder_combout\ $end
$var wire 1 7 \reset~input_o\ $end
$var wire 1 8 \state.A_0~q\ $end
$var wire 1 9 \Selector1~0_combout\ $end
$var wire 1 : \state.B_0~q\ $end
$var wire 1 ; \Selector2~0_combout\ $end
$var wire 1 < \state.C_0~q\ $end
$var wire 1 = \Selector3~0_combout\ $end
$var wire 1 > \state.D_0~q\ $end
$var wire 1 ? \Selector4~0_combout\ $end
$var wire 1 @ \state.E_1~q\ $end
$var wire 1 A \Selector5~0_combout\ $end
$var wire 1 B \state.F_0~q\ $end
$var wire 1 C \Selector6~0_combout\ $end
$var wire 1 D \state.G_0~q\ $end
$var wire 1 E \Selector7~0_combout\ $end
$var wire 1 F \state.H_0~q\ $end
$var wire 1 G \Selector8~0_combout\ $end
$var wire 1 H \state.I_1~q\ $end
$var wire 1 I \WideNor0~combout\ $end
$var wire 1 J \ALT_INV_w~input_o\ $end
$var wire 1 K \ALT_INV_reset~input_o\ $end
$var wire 1 L \ALT_INV_state.A_0~q\ $end
$var wire 1 M \ALT_INV_state.F_0~q\ $end
$var wire 1 N \ALT_INV_state.B_0~q\ $end
$var wire 1 O \ALT_INV_state.G_0~q\ $end
$var wire 1 P \ALT_INV_state.C_0~q\ $end
$var wire 1 Q \ALT_INV_state.H_0~q\ $end
$var wire 1 R \ALT_INV_state.D_0~q\ $end
$var wire 1 S \ALT_INV_state.I_1~q\ $end
$var wire 1 T \ALT_INV_state.E_1~q\ $end
$upscope $end
$upscope $end
$enddefinitions $end
#0
$dumpvars
0!
0"
0#
0$
0%
1&
x'
1(
1)
1*
1+
1,
1-
0.
0/
00
01
x2
03
04
05
16
07
08
19
0:
0;
0<
0=
0>
0?
0@
0A
0B
0C
0D
0E
0F
0G
0H
0I
1J
1K
1L
1M
1N
1O
1P
1Q
1R
1S
1T
$end
#5000
1!
1.
13
14
18
1:
0N
0L
09
1;
#10000
0!
0.
03
04
#15000
1!
1.
13
14
0:
1<
0P
1N
0;
1=
#20000
0!
1#
0.
10
15
03
04
0J
0=
1A
#25000
1!
1.
13
14
0<
1B
0M
1P
0A
1C
#30000
0!
0#
0.
00
05
03
04
1J
19
0C
#35000
1!
1.
13
14
1:
0B
1M
0N
1;
09
#40000
0!
0.
03
04
#45000
1!
1.
13
14
0:
1<
0P
1N
0;
1=
#50000
0!
0.
03
04
#55000
1!
1.
13
14
0<
1>
0R
1P
0=
1?
#60000
0!
0.
03
04
#65000
1!
1.
13
14
0>
1@
0T
1R
1I
11
1$
#70000
0!
1#
0.
10
15
03
04
0J
1A
#75000
1!
1.
13
14
0@
1B
0M
1T
0?
0A
0I
1C
01
0$
#80000
0!
0.
03
04
#85000
1!
1.
13
14
0B
1D
0O
1M
0C
1E
#90000
0!
0.
03
04
#95000
1!
1.
13
14
0D
1F
0Q
1O
0E
1G
#100000
0!
0.
03
04
#105000
1!
1.
13
14
0F
1H
0S
1Q
1I
11
1$
#110000
0!
0.
03
04
#115000
1!
1.
13
14
#120000
0!
0#
0.
00
05
03
04
1J
19
#125000
1!
1.
13
14
1:
0H
1S
0N
1;
09
0G
0I
01
0$
#130000
0!
0.
03
04
#135000
1!
1.
13
14
0:
1<
0P
1N
0;
1=
#140000
0!
0.
03
04
#145000
1!
1.
13
14
0<
1>
0R
1P
0=
1?
#150000
0!
0.
03
04
#155000
1!
1.
13
14
0>
1@
0T
1R
1I
11
1$
#160000
0!
0.
03
04
#165000
1!
1.
13
14
#170000
0!
0.
03
04
#175000
1!
1.
13
14
#180000
0!
0.
03
04
#185000
1!
1.
13
14
#190000
0!
0.
03
04
#195000
1!
1.
13
14
#200000
0!
0.
03
04
#205000
1!
1.
13
14
#210000
0!
0.
03
04
#215000
1!
1.
13
14
#220000
0!
0.
03
04
#225000
1!
1.
13
14
#230000
0!
0.
03
04
#235000
1!
1.
13
14
#240000
0!
0.
03
04
#245000
1!
1.
13
14
#250000
0!
0.
03
04
#255000
1!
1.
13
14
#260000
0!
0.
03
04
#265000
1!
1.
13
14
#270000
0!
0.
03
04
#275000
1!
1.
13
14
#280000
0!
0.
03
04
#285000
1!
1.
13
14
#290000
0!
0.
03
04
#295000
1!
1.
13
14
#300000
0!
0.
03
04
#305000
1!
1.
13
14
#310000
0!
0.
03
04
#315000
1!
1.
13
14
#320000
0!
0.
03
04
#325000
1!
1.
13
14
#330000
0!
0.
03
04
#335000
1!
1.
13
14
#340000
0!
0.
03
04
#345000
1!
1.
13
14
#350000
0!
0.
03
04
#355000
1!
1.
13
14
#360000
0!
0.
03
04
#365000
1!
1.
13
14
#370000
0!
0.
03
04
#375000
1!
1.
13
14
#380000
0!
0.
03
04
#385000
1!
1.
13
14
#390000
0!
0.
03
04
#395000
1!
1.
13
14
#400000
0!
0.
03
04
#405000
1!
1.
13
14
#410000
0!
0.
03
04
#415000
1!
1.
13
14
#420000
0!
0.
03
04
#425000
1!
1.
13
14
#430000
0!
0.
03
04
#435000
1!
1.
13
14
#440000
0!
0.
03
04
#445000
1!
1.
13
14
#450000
0!
0.
03
04
#455000
1!
1.
13
14
#460000
0!
0.
03
04
#465000
1!
1.
13
14
#470000
0!
0.
03
04
#475000
1!
1.
13
14
#480000
0!
0.
03
04
#485000
1!
1.
13
14
#490000
0!
0.
03
04
#495000
1!
1.
13
14
#500000
0!
0.
03
04
#505000
1!
1.
13
14
#510000
0!
0.
03
04
#515000
1!
1.
13
14
#520000
0!
0.
03
04
#525000
1!
1.
13
14
#530000
0!
0.
03
04
#535000
1!
1.
13
14
#540000
0!
0.
03
04
#545000
1!
1.
13
14
#550000
0!
0.
03
04
#555000
1!
1.
13
14
#560000
0!
0.
03
04
#565000
1!
1.
13
14
#570000
0!
0.
03
04
#575000
1!
1.
13
14
#580000
0!
0.
03
04
#585000
1!
1.
13
14
#590000
0!
0.
03
04
#595000
1!
1.
13
14
#600000
0!
0.
03
04
#605000
1!
1.
13
14
#610000
0!
0.
03
04
#615000
1!
1.
13
14
#620000
0!
0.
03
04
#625000
1!
1.
13
14
#630000
0!
0.
03
04
#635000
1!
1.
13
14
#640000
0!
0.
03
04
#645000
1!
1.
13
14
#650000
0!
0.
03
04
#655000
1!
1.
13
14
#660000
0!
0.
03
04
#665000
1!
1.
13
14
#670000
0!
0.
03
04
#675000
1!
1.
13
14
#680000
0!
0.
03
04
#685000
1!
1.
13
14
#690000
0!
0.
03
04
#695000
1!
1.
13
14
#700000
0!
0.
03
04
#705000
1!
1.
13
14
#710000
0!
0.
03
04
#715000
1!
1.
13
14
#720000
0!
0.
03
04
#725000
1!
1.
13
14
#730000
0!
0.
03
04
#735000
1!
1.
13
14
#740000
0!
0.
03
04
#745000
1!
1.
13
14
#750000
0!
0.
03
04
#755000
1!
1.
13
14
#760000
0!
0.
03
04
#765000
1!
1.
13
14
#770000
0!
0.
03
04
#775000
1!
1.
13
14
#780000
0!
0.
03
04
#785000
1!
1.
13
14
#790000
0!
0.
03
04
#795000
1!
1.
13
14
#800000
0!
0.
03
04
#805000
1!
1.
13
14
#810000
0!
0.
03
04
#815000
1!
1.
13
14
#820000
0!
0.
03
04
#825000
1!
1.
13
14
#830000
0!
0.
03
04
#835000
1!
1.
13
14
#840000
0!
0.
03
04
#845000
1!
1.
13
14
#850000
0!
0.
03
04
#855000
1!
1.
13
14
#860000
0!
0.
03
04
#865000
1!
1.
13
14
#870000
0!
0.
03
04
#875000
1!
1.
13
14
#880000
0!
0.
03
04
#885000
1!
1.
13
14
#890000
0!
0.
03
04
#895000
1!
1.
13
14
#900000
0!
0.
03
04
#905000
1!
1.
13
14
#910000
0!
0.
03
04
#915000
1!
1.
13
14
#920000
0!
0.
03
04
#925000
1!
1.
13
14
#930000
0!
0.
03
04
#935000
1!
1.
13
14
#940000
0!
0.
03
04
#945000
1!
1.
13
14
#950000
0!
0.
03
04
#955000
1!
1.
13
14
#960000
0!
0.
03
04
#965000
1!
1.
13
14
#970000
0!
0.
03
04
#975000
1!
1.
13
14
#980000
0!
0.
03
04
#985000
1!
1.
13
14
#990000
0!
0.
03
04
#995000
1!
1.
13
14
