Aula4e5/RotatingDisplay-20240917T233615Z-001/RotatingDisplay/simulation/qsim/RotatingDisplay.msim.vcd
$comment
	File created using the following command:
		vcd file RotatingDisplay.msim.vcd -direction
$end
$date
	Tue Sep 17 16:05:41 2024
$end
$version
	ModelSim Version 10.5b
$end
$timescale
	1ps
$end

$scope module rotatingdisplay_vhd_vec_tst $end
$var wire 1 ! CLK $end
$var wire 1 " HEX0 [6] $end
$var wire 1 # HEX0 [5] $end
$var wire 1 $ HEX0 [4] $end
$var wire 1 % HEX0 [3] $end
$var wire 1 & HEX0 [2] $end
$var wire 1 ' HEX0 [1] $end
$var wire 1 ( HEX0 [0] $end
$var wire 1 ) HEX1 [6] $end
$var wire 1 * HEX1 [5] $end
$var wire 1 + HEX1 [4] $end
$var wire 1 , HEX1 [3] $end
$var wire 1 - HEX1 [2] $end
$var wire 1 . HEX1 [1] $end
$var wire 1 / HEX1 [0] $end
$var wire 1 0 HEX2 [6] $end
$var wire 1 1 HEX2 [5] $end
$var wire 1 2 HEX2 [4] $end
$var wire 1 3 HEX2 [3] $end
$var wire 1 4 HEX2 [2] $end
$var wire 1 5 HEX2 [1] $end
$var wire 1 6 HEX2 [0] $end
$var wire 1 7 HEX3 [6] $end
$var wire 1 8 HEX3 [5] $end
$var wire 1 9 HEX3 [4] $end
$var wire 1 : HEX3 [3] $end
$var wire 1 ; HEX3 [2] $end
$var wire 1 < HEX3 [1] $end
$var wire 1 = HEX3 [0] $end
$var wire 1 > RESET $end

$scope module i1 $end
$var wire 1 ? gnd $end
$var wire 1 @ vcc $end
$var wire 1 A unknown $end
$var wire 1 B devoe $end
$var wire 1 C devclrn $end
$var wire 1 D devpor $end
$var wire 1 E ww_devoe $end
$var wire 1 F ww_devclrn $end
$var wire 1 G ww_devpor $end
$var wire 1 H ww_CLK $end
$var wire 1 I ww_RESET $end
$var wire 1 J ww_HEX0 [6] $end
$var wire 1 K ww_HEX0 [5] $end
$var wire 1 L ww_HEX0 [4] $end
$var wire 1 M ww_HEX0 [3] $end
$var wire 1 N ww_HEX0 [2] $end
$var wire 1 O ww_HEX0 [1] $end
$var wire 1 P ww_HEX0 [0] $end
$var wire 1 Q ww_HEX1 [6] $end
$var wire 1 R ww_HEX1 [5] $end
$var wire 1 S ww_HEX1 [4] $end
$var wire 1 T ww_HEX1 [3] $end
$var wire 1 U ww_HEX1 [2] $end
$var wire 1 V ww_HEX1 [1] $end
$var wire 1 W ww_HEX1 [0] $end
$var wire 1 X ww_HEX2 [6] $end
$var wire 1 Y ww_HEX2 [5] $end
$var wire 1 Z ww_HEX2 [4] $end
$var wire 1 [ ww_HEX2 [3] $end
$var wire 1 \ ww_HEX2 [2] $end
$var wire 1 ] ww_HEX2 [1] $end
$var wire 1 ^ ww_HEX2 [0] $end
$var wire 1 _ ww_HEX3 [6] $end
$var wire 1 ` ww_HEX3 [5] $end
$var wire 1 a ww_HEX3 [4] $end
$var wire 1 b ww_HEX3 [3] $end
$var wire 1 c ww_HEX3 [2] $end
$var wire 1 d ww_HEX3 [1] $end
$var wire 1 e ww_HEX3 [0] $end
$var wire 1 f \~QUARTUS_CREATED_GND~I_combout\ $end
$var wire 1 g \CLK~input_o\ $end
$var wire 1 h \CLK~inputCLKENA0_outclk\ $end
$var wire 1 i \RESET~input_o\ $end
$var wire 1 j \Add1~85_sumout\ $end
$var wire 1 k \Add1~86\ $end
$var wire 1 l \Add1~73_sumout\ $end
$var wire 1 m \Add1~74\ $end
$var wire 1 n \Add1~5_sumout\ $end
$var wire 1 o \Add1~6\ $end
$var wire 1 p \Add1~1_sumout\ $end
$var wire 1 q \Add1~2\ $end
$var wire 1 r \Add1~29_sumout\ $end
$var wire 1 s \Add1~30\ $end
$var wire 1 t \Add1~25_sumout\ $end
$var wire 1 u \Add1~26\ $end
$var wire 1 v \Add1~21_sumout\ $end
$var wire 1 w \Add1~22\ $end
$var wire 1 x \Add1~17_sumout\ $end
$var wire 1 y \Add1~18\ $end
$var wire 1 z \Add1~13_sumout\ $end
$var wire 1 { \Add1~14\ $end
$var wire 1 | \Add1~9_sumout\ $end
$var wire 1 } \Equal0~1_combout\ $end
$var wire 1 ~ \Add1~10\ $end
$var wire 1 !! \Add1~53_sumout\ $end
$var wire 1 "! \Add1~54\ $end
$var wire 1 #! \Add1~49_sumout\ $end
$var wire 1 $! \Add1~50\ $end
$var wire 1 %! \Add1~45_sumout\ $end
$var wire 1 &! \Add1~46\ $end
$var wire 1 '! \Add1~41_sumout\ $end
$var wire 1 (! \Add1~42\ $end
$var wire 1 )! \Add1~37_sumout\ $end
$var wire 1 *! \Add1~38\ $end
$var wire 1 +! \Add1~33_sumout\ $end
$var wire 1 ,! \Equal0~2_combout\ $end
$var wire 1 -! \clk_div[2]~DUPLICATE_q\ $end
$var wire 1 .! \Equal0~0_combout\ $end
$var wire 1 /! \Add1~34\ $end
$var wire 1 0! \Add1~77_sumout\ $end
$var wire 1 1! \clk_div[16]~DUPLICATE_q\ $end
$var wire 1 2! \Add1~78\ $end
$var wire 1 3! \Add1~81_sumout\ $end
$var wire 1 4! \Add1~82\ $end
$var wire 1 5! \Add1~69_sumout\ $end
$var wire 1 6! \Add1~70\ $end
$var wire 1 7! \Add1~65_sumout\ $end
$var wire 1 8! \clk_div[19]~DUPLICATE_q\ $end
$var wire 1 9! \Add1~66\ $end
$var wire 1 :! \Add1~61_sumout\ $end
$var wire 1 ;! \Add1~62\ $end
$var wire 1 <! \Add1~57_sumout\ $end
$var wire 1 =! \Add1~58\ $end
$var wire 1 >! \Add1~125_sumout\ $end
$var wire 1 ?! \Add1~126\ $end
$var wire 1 @! \Add1~121_sumout\ $end
$var wire 1 A! \Add1~122\ $end
$var wire 1 B! \Add1~117_sumout\ $end
$var wire 1 C! \Add1~118\ $end
$var wire 1 D! \Add1~113_sumout\ $end
$var wire 1 E! \Add1~114\ $end
$var wire 1 F! \Add1~109_sumout\ $end
$var wire 1 G! \Add1~110\ $end
$var wire 1 H! \Add1~105_sumout\ $end
$var wire 1 I! \Add1~106\ $end
$var wire 1 J! \Add1~101_sumout\ $end
$var wire 1 K! \Add1~102\ $end
$var wire 1 L! \Add1~97_sumout\ $end
$var wire 1 M! \Add1~98\ $end
$var wire 1 N! \Add1~93_sumout\ $end
$var wire 1 O! \Add1~94\ $end
$var wire 1 P! \Add1~89_sumout\ $end
$var wire 1 Q! \clk_div[0]~DUPLICATE_q\ $end
$var wire 1 R! \Equal0~4_combout\ $end
$var wire 1 S! \Equal0~5_combout\ $end
$var wire 1 T! \clk_div[1]~DUPLICATE_q\ $end
$var wire 1 U! \Equal0~3_combout\ $end
$var wire 1 V! \Equal0~6_combout\ $end
$var wire 1 W! \count[0]~0_combout\ $end
$var wire 1 X! \count[0]~DUPLICATE_q\ $end
$var wire 1 Y! \count[1]~1_combout\ $end
$var wire 1 Z! \Mux2~0_combout\ $end
$var wire 1 [! \Mux2~1_combout\ $end
$var wire 1 \! \Mux7~0_combout\ $end
$var wire 1 ]! \Mux4~0_combout\ $end
$var wire 1 ^! \Mux2~2_combout\ $end
$var wire 1 _! clk_div [31] $end
$var wire 1 `! clk_div [30] $end
$var wire 1 a! clk_div [29] $end
$var wire 1 b! clk_div [28] $end
$var wire 1 c! clk_div [27] $end
$var wire 1 d! clk_div [26] $end
$var wire 1 e! clk_div [25] $end
$var wire 1 f! clk_div [24] $end
$var wire 1 g! clk_div [23] $end
$var wire 1 h! clk_div [22] $end
$var wire 1 i! clk_div [21] $end
$var wire 1 j! clk_div [20] $end
$var wire 1 k! clk_div [19] $end
$var wire 1 l! clk_div [18] $end
$var wire 1 m! clk_div [17] $end
$var wire 1 n! clk_div [16] $end
$var wire 1 o! clk_div [15] $end
$var wire 1 p! clk_div [14] $end
$var wire 1 q! clk_div [13] $end
$var wire 1 r! clk_div [12] $end
$var wire 1 s! clk_div [11] $end
$var wire 1 t! clk_div [10] $end
$var wire 1 u! clk_div [9] $end
$var wire 1 v! clk_div [8] $end
$var wire 1 w! clk_div [7] $end
$var wire 1 x! clk_div [6] $end
$var wire 1 y! clk_div [5] $end
$var wire 1 z! clk_div [4] $end
$var wire 1 {! clk_div [3] $end
$var wire 1 |! clk_div [2] $end
$var wire 1 }! clk_div [1] $end
$var wire 1 ~! clk_div [0] $end
$var wire 1 !" count [1] $end
$var wire 1 "" count [0] $end
$var wire 1 #" \ALT_INV_count[0]~DUPLICATE_q\ $end
$var wire 1 $" \ALT_INV_clk_div[0]~DUPLICATE_q\ $end
$var wire 1 %" \ALT_INV_clk_div[16]~DUPLICATE_q\ $end
$var wire 1 &" \ALT_INV_clk_div[1]~DUPLICATE_q\ $end
$var wire 1 '" \ALT_INV_clk_div[19]~DUPLICATE_q\ $end
$var wire 1 (" \ALT_INV_clk_div[2]~DUPLICATE_q\ $end
$var wire 1 )" \ALT_INV_RESET~input_o\ $end
$var wire 1 *" \ALT_INV_Equal0~6_combout\ $end
$var wire 1 +" \ALT_INV_Equal0~5_combout\ $end
$var wire 1 ," \ALT_INV_Equal0~4_combout\ $end
$var wire 1 -" \ALT_INV_Equal0~3_combout\ $end
$var wire 1 ." \ALT_INV_Equal0~2_combout\ $end
$var wire 1 /" \ALT_INV_Equal0~1_combout\ $end
$var wire 1 0" \ALT_INV_Equal0~0_combout\ $end
$var wire 1 1" \ALT_INV_Mux4~0_combout\ $end
$var wire 1 2" \ALT_INV_Mux7~0_combout\ $end
$var wire 1 3" ALT_INV_count [1] $end
$var wire 1 4" ALT_INV_count [0] $end
$var wire 1 5" ALT_INV_clk_div [31] $end
$var wire 1 6" ALT_INV_clk_div [30] $end
$var wire 1 7" ALT_INV_clk_div [29] $end
$var wire 1 8" ALT_INV_clk_div [28] $end
$var wire 1 9" ALT_INV_clk_div [27] $end
$var wire 1 :" ALT_INV_clk_div [26] $end
$var wire 1 ;" ALT_INV_clk_div [25] $end
$var wire 1 <" ALT_INV_clk_div [24] $end
$var wire 1 =" ALT_INV_clk_div [23] $end
$var wire 1 >" ALT_INV_clk_div [22] $end
$var wire 1 ?" ALT_INV_clk_div [21] $end
$var wire 1 @" ALT_INV_clk_div [20] $end
$var wire 1 A" ALT_INV_clk_div [19] $end
$var wire 1 B" ALT_INV_clk_div [18] $end
$var wire 1 C" ALT_INV_clk_div [17] $end
$var wire 1 D" ALT_INV_clk_div [16] $end
$var wire 1 E" ALT_INV_clk_div [15] $end
$var wire 1 F" ALT_INV_clk_div [14] $end
$var wire 1 G" ALT_INV_clk_div [13] $end
$var wire 1 H" ALT_INV_clk_div [12] $end
$var wire 1 I" ALT_INV_clk_div [11] $end
$var wire 1 J" ALT_INV_clk_div [10] $end
$var wire 1 K" ALT_INV_clk_div [9] $end
$var wire 1 L" ALT_INV_clk_div [8] $end
$var wire 1 M" ALT_INV_clk_div [7] $end
$var wire 1 N" ALT_INV_clk_div [6] $end
$var wire 1 O" ALT_INV_clk_div [5] $end
$var wire 1 P" ALT_INV_clk_div [4] $end
$var wire 1 Q" ALT_INV_clk_div [3] $end
$var wire 1 R" ALT_INV_clk_div [2] $end
$var wire 1 S" ALT_INV_clk_div [1] $end
$var wire 1 T" ALT_INV_clk_div [0] $end
$upscope $end
$upscope $end
$enddefinitions $end
#0
$dumpvars
0!
1>
0?
1@
xA
1B
1C
1D
1E
1F
1G
0H
1I
xf
0g
0h
1i
1j
0k
0l
0m
0n
0o
0p
0q
0r
0s
0t
0u
0v
0w
0x
0y
0z
0{
0|
1}
0~
0!!
0"!
0#!
0$!
0%!
0&!
0'!
0(!
0)!
0*!
0+!
1,!
0-!
1.!
0/!
00!
01!
02!
03!
04!
05!
06!
07!
08!
09!
0:!
0;!
0<!
0=!
0>!
0?!
0@!
0A!
0B!
0C!
0D!
0E!
0F!
0G!
0H!
0I!
0J!
0K!
0L!
0M!
0N!
0O!
0P!
0Q!
0R!
1S!
0T!
0U!
0V!
0W!
0X!
0Y!
0Z!
0[!
0\!
0]!
0^!
1#"
1$"
1%"
1&"
1'"
1("
0)"
1*"
0+"
1,"
1-"
0."
0/"
00"
11"
12"
0J
1K
0L
0M
0N
0O
1P
0Q
0R
0S
0T
1U
1V
0W
1X
1Y
1Z
1[
0\
0]
1^
1_
0`
0a
0b
0c
0d
0e
0_!
0`!
0a!
0b!
0c!
0d!
0e!
0f!
0g!
0h!
0i!
0j!
0k!
0l!
0m!
0n!
0o!
0p!
0q!
0r!
0s!
0t!
0u!
0v!
0w!
0x!
0y!
0z!
0{!
0|!
0}!
0~!
0!"
0""
13"
14"
15"
16"
17"
18"
19"
1:"
1;"
1<"
1="
1>"
1?"
1@"
1A"
1B"
1C"
1D"
1E"
1F"
1G"
1H"
1I"
1J"
1K"
1L"
1M"
1N"
1O"
1P"
1Q"
1R"
1S"
1T"
0"
1#
0$
0%
0&
0'
1(
0)
0*
0+
0,
1-
1.
0/
10
11
12
13
04
05
16
17
08
09
0:
0;
0<
0=
$end
#25000
1!
1H
1g
1h
#50000
0!
0H
0g
0h
#75000
1!
1H
1g
1h
#80000
0>
0I
0i
1)"
#100000
0!
0H
0g
0h
#125000
1!
1H
1g
1h
1~!
1Q!
0$"
0T"
0j
1k
1R!
0,"
1l
#150000
0!
0H
0g
0h
#175000
1!
1H
1g
1h
0~!
1}!
0Q!
1T!
0&"
1$"
0S"
1T"
1j
0k
0l
1m
0R!
1U!
0-"
1,"
1n
1l
0m
0n
#200000
0!
0H
0g
0h
#225000
1!
1H
1g
1h
1~!
1Q!
0$"
0T"
0j
1k
1R!
0,"
0l
1m
1V!
1n
0*"
1W!
#250000
0!
0H
0g
0h
#275000
1!
1H
1g
1h
1""
0~!
0}!
0Q!
0T!
1X!
0#"
1&"
1$"
1S"
1T"
04"
0W!
1Y!
1j
0k
1l
0m
0R!
0U!
1Z!
1\!
1]!
01"
02"
1-"
1,"
1W
1R
1e
1`
0n
0l
0P
0K
0^
0Y
0V!
1/
1*
1=
18
1*"
0(
0#
06
01
1Q
1O
1N
1T
1S
0V
0U
0[
0Z
0_
1W!
0Y!
1,
1+
1)
1'
1&
0.
0-
03
02
07
#300000
0!
0H
0g
0h
#325000
1!
1H
1g
1h
1~!
1Q!
0$"
0T"
0j
1k
1R!
0,"
1l
#350000
0!
0H
0g
0h
#375000
1!
1H
1g
1h
0~!
1}!
0Q!
1T!
0&"
1$"
0S"
1T"
1j
0k
0l
1m
0R!
1U!
0-"
1,"
1n
1l
0m
0n
#400000
0!
0H
0g
0h
#425000
1!
1H
1g
1h
1~!
1Q!
0$"
0T"
0j
1k
1R!
0,"
0l
1m
1V!
1n
0*"
0W!
1Y!
#450000
0!
0H
0g
0h
#475000
1!
1H
1g
1h
0""
0~!
0}!
0Q!
0T!
0X!
1!"
03"
1#"
1&"
1$"
1S"
1T"
14"
1W!
1j
0k
1l
0m
0R!
0U!
0Z!
1[!
1-"
1,"
1J
0W
0R
0e
0`
0n
0l
1P
1K
1^
1Y
0X
0V!
1"
0/
0*
0=
08
1*"
1(
1#
16
11
00
1M
1L
1d
1c
0O
0N
0T
0S
0W!
0'
0&
1%
1$
1<
1;
0,
0+
#500000
0!
0H
0g
0h
#525000
1!
1H
1g
1h
1~!
1Q!
0$"
0T"
0j
1k
1R!
0,"
1l
#550000
0!
0H
0g
0h
#575000
1!
1H
1g
1h
0~!
1}!
0Q!
1T!
0&"
1$"
0S"
1T"
1j
0k
0l
1m
0R!
1U!
0-"
1,"
1n
1l
0m
0n
#600000
0!
0H
0g
0h
#625000
1!
1H
1g
1h
1~!
1Q!
0$"
0T"
0j
1k
1R!
0,"
0l
1m
1V!
1n
0*"
1W!
#650000
0!
0H
0g
0h
#675000
1!
1H
1g
1h
1""
0~!
0}!
0Q!
0T!
1X!
0#"
1&"
1$"
1S"
1T"
04"
0W!
0Y!
1j
0k
1l
0m
0R!
0U!
0[!
0]!
1^!
11"
1-"
1,"
1W
1R
1e
1`
0n
0l
0P
0K
0^
0Y
0V!
1/
1*
1=
18
1*"
0(
0#
06
01
1]
1\
1b
1a
0Q
0M
0L
0d
0c
1_
1W!
1Y!
15
14
0<
0;
1:
19
0)
0%
0$
17
#700000
0!
0H
0g
0h
#725000
1!
1H
1g
1h
1~!
1Q!
0$"
0T"
0j
1k
1R!
0,"
1l
#750000
0!
0H
0g
0h
#775000
1!
1H
1g
1h
0~!
1}!
0Q!
1T!
0&"
1$"
0S"
1T"
1j
0k
0l
1m
0R!
1U!
0-"
1,"
1n
1l
0m
0n
#800000
0!
0H
0g
0h
#825000
1!
1H
1g
1h
1~!
1Q!
0$"
0T"
0j
1k
1R!
0,"
0l
1m
1V!
1n
0*"
0W!
0Y!
#850000
0!
0H
0g
0h
#875000
1!
1H
1g
1h
0""
0~!
0}!
0Q!
0T!
0X!
0!"
13"
1#"
1&"
1$"
1S"
1T"
14"
1W!
1j
0k
1l
0m
0R!
0U!
0\!
0^!
12"
1-"
1,"
0J
0W
0R
0e
0`
0n
0l
1P
1K
1^
1Y
1X
0V!
0"
0/
0*
0=
08
1*"
1(
1#
16
11
10
0]
0\
0b
0a
1V
1U
1[
1Z
0W!
05
04
0:
09
1.
1-
13
12
#900000
0!
0H
0g
0h
#925000
1!
1H
1g
1h
1~!
1Q!
0$"
0T"
0j
1k
1R!
0,"
1l
#950000
0!
0H
0g
0h
#975000
1!
1H
1g
1h
0~!
1}!
0Q!
1T!
0&"
1$"
0S"
1T"
1j
0k
0l
1m
0R!
1U!
0-"
1,"
1n
1l
0m
0n
